[
    {
        "Name": "snoop",
        "X": 700,
        "Y": 550,
        "Scale": 0.3499999940395355
    },
    {
        "Name": "nyancat",
        "X": 800,
        "Y": 350,
        "Scale": 0.029999999329447746
    },
    {
        "Name": "gopher",
        "X": 1100,
        "Y": 350,
        "Scale": 0.20000000298023224
    },
    {
        "Name": "bart",
        "X": 800,
        "Y": 500,
        "Scale": 0.30000001192092896
    },
    {
        "Name": "briandance",
        "X": 850,
        "Y": 350,
        "Scale": 0.30000001192092896
    },
    {
        "Name": "pepejam",
        "X": 900,
        "Y": 450,
        "Scale": 0.30000001192092896
    },
    {
        "Name": "confused",
        "X": 780,
        "Y": 380,
        "Scale": 0.15000000596046448
    },
    {
        "Name": "mr-mime",
        "X": 750,
        "Y": 450,
        "Scale": 0.30000001192092896
    },
    {
        "Name": "beginsmouse",
        "X": 1000,
        "Y": 350,
        "Scale": 0.05000000074505806
    },
    {
        "Name": "pepemusic",
        "X": 720,
        "Y": 680,
        "Scale": 0.30000001192092896
    },
    {
        "Name": "shark",
        "X": 800,
        "Y": 450,
        "Scale": 0.30000001192092896
    },
    {
        "Name": "charmander",
        "X": 1150,
        "Y": 500,
        "Scale": 0.20000000298023224
    },
    {
        "Name": "spidermandance",
        "X": 800,
        "Y": 550,
        "Scale": 1
    },
    {
        "Name": "vibecat",
        "X": 650,
        "Y": 650,
        "Scale": 0.10000000149011612
    },
    {
        "Name": "dkdance",
        "X": 1200,
        "Y": 600,
        "Scale": 1
    },
    {
        "Name": "technofroggo",
        "X": 1050,
        "Y": 350,
        "Scale": 0.03999999910593033
    },
    {
        "Name": "kirbydance",
        "X": 1200,
        "Y": 550,
        "Scale": 0.07999999821186066
    },
    {
        "Name": "skelecd",
        "X": 1000,
        "Y": 300,
        "Scale": 0.09000000357627869
    },
    {
        "Name": "peanutbutterjellytime",
        "X": 780,
        "Y": 550,
        "Scale": 0.05999999865889549
    },
    {
        "Name": "dancingbaby",
        "X": 1200,
        "Y": 450,
        "Scale": 0.5
    },
    {
        "Name": "spinhomer",
        "X": 1200,
        "Y": 300,
        "Scale": 0.10000000149011612
    },
    {
        "Name": "spiderdance",
        "X": 900,
        "Y": 350,
        "Scale": 0.30000001192092896
    },
    {
        "Name": "kidalex",
        "X": 800,
        "Y": 400,
        "Scale": 0.4000000059604645
    },
    {
        "Name": "dogedance",
        "X": 1200,
        "Y": 350,
        "Scale": 0.20000000298023224
    },
    {
        "Name": "violentj",
        "X": 0,
        "Y": 0,
        "Scale": 1
    }
]
